…
    ## Rows: 822 Columns: 9
    ## ── Column specification ────────────────────────────────────────────────────────
    ## Delimiter: ","
    ## dbl  (8): prez_gop, gov_gop, sen_gop, rep_gop, prez_dem, gov_dem, sen_dem, r...
    ## date (1): mon
    ## 
    ## ℹ Use `spec()` to retrieve the full column specification for this data.
    ## ℹ Specify the column types or set `show_col_types = FALSE` to quiet this message.

``` r
pols_month_df
```

    ## # A tibble: 822 × 9
    ##    year  month     gov_gop sen_gop rep_gop gov_dem sen_dem rep_dem president 
    ##    <chr> <chr>       <dbl>   <dbl>   <dbl>   <dbl>   <dbl>   <dbl> <chr>     
    ##  1 1947  January        23      51     253      23      45     198 democratic
    ##  2 1947  February       23      51     253      23      45     198 democratic
    ##  3 1947  March          23      51     253      23      45     198 democratic
    ##  4 1947  April          23      51     253      23      45     198 democratic
    ##  5 1947  May            23      51     253      23      45     198 democratic
    ##  6 1947  June           23      51     253      23      45     198 democratic
    ##  7 1947  July           23      51     253      23      45     198 democratic
    ##  8 1947  August         23      51     253      23      45     198 democratic
    ##  9 1947  September      23      51     253      23      45     198 democratic
    ## 10 1947  October        23      51     253      23      45     198 democratic
    ## # ℹ 812 more rows
…
    ## Rows: 787 Columns: 2
    ## ── Column specification ────────────────────────────────────────────────────────
    ## Delimiter: ","
    ## chr (1): date
    ## dbl (1): close
    ## 
    ## ℹ Use `spec()` to retrieve the full column specification for this data.
    ## ℹ Specify the column types or set `show_col_types = FALSE` to quiet this message.

``` r
snp_df
```

    ## # A tibble: 787 × 4
    ##    year  month    day   close
    ##    <chr> <chr>    <chr> <dbl>
    ##  1 2015  July     1     2080.
    ##  2 2015  June     1     2063.
    ##  3 2015  May      1     2107.
    ##  4 2015  April    1     2086.
    ##  5 2015  March    2     2068.
    ##  6 2015  February 2     2104.
    ##  7 2015  January  2     1995.
    ##  8 2014  December 1     2059.
    ##  9 2014  November 3     2068.
    ## 10 2014  October  1     2018.
    ## # ℹ 777 more rows
…
    ## Rows: 68 Columns: 13
    ## ── Column specification ────────────────────────────────────────────────────────
    ## Delimiter: ","
    ## dbl (13): Year, Jan, Feb, Mar, Apr, May, Jun, Jul, Aug, Sep, Oct, Nov, Dec
    ## 
    ## ℹ Use `spec()` to retrieve the full column specification for this data.
    ## ℹ Specify the column types or set `show_col_types = FALSE` to quiet this message.

``` r
unemployment_df
```

    ## # A tibble: 816 × 3
    ##    year  month     unemployment
    ##    <chr> <chr>            <dbl>
    ##  1 1948  January            3.4
    ##  2 1948  February           3.8
    ##  3 1948  March              4  
    ##  4 1948  April              3.9
    ##  5 1948  May                3.5
    ##  6 1948  June               3.6
    ##  7 1948  July               3.6
    ##  8 1948  August             3.9
    ##  9 1948  September          3.8
    ## 10 1948  October            3.7
    ## # ℹ 806 more rows

**merge three dataframe**

``` r
P1_whole_df = 
  left_join(pols_month_df, snp_df, by = c("year", "month"))|>
  left_join(unemployment_df, by = c("year", "month"))
P1_whole_df
```

    ## # A tibble: 822 × 12
    ##    year  month   gov_gop sen_gop rep_gop gov_dem sen_dem rep_dem president day  
    ##    <chr> <chr>     <dbl>   <dbl>   <dbl>   <dbl>   <dbl>   <dbl> <chr>     <chr>
    ##  1 1947  January      23      51     253      23      45     198 democrat… <NA> 
    ##  2 1947  Februa…      23      51     253      23      45     198 democrat… <NA> 
    ##  3 1947  March        23      51     253      23      45     198 democrat… <NA> 
    ##  4 1947  April        23      51     253      23      45     198 democrat… <NA> 
    ##  5 1947  May          23      51     253      23      45     198 democrat… <NA> 
    ##  6 1947  June         23      51     253      23      45     198 democrat… <NA> 
    ##  7 1947  July         23      51     253      23      45     198 democrat… <NA> 
    ##  8 1947  August       23      51     253      23      45     198 democrat… <NA> 
    ##  9 1947  Septem…      23      51     253      23      45     198 democrat… <NA> 
    ## 10 1947  October      23      51     253      23      45     198 democrat… <NA> 
    ## # ℹ 812 more rows
    ## # ℹ 2 more variables: close <dbl>, unemployment <dbl>
…
# load the dataset, change the format of date, recalculate homes_powered
mr_trash_wheel_df = 
  readxl::read_excel("HW2_P2_DATA/202207 Trash Wheel Collection Data.xlsx", sheet = "Mr. Trash Wheel", range = "A2:N549")|>
  janitor::clean_names()|>
  mutate(
    date = substr(date, nchar(date) - 1, nchar(date))
  )|>
  mutate(
    homes_powered = (weight_tons*500/30)
  )|>
  mutate(name = "Mr_trash_wheel")
mr_trash_wheel_df
```

    ## # A tibble: 547 × 15
    ##    dumpster month year  date  weight_tons volume_cubic_yards plastic_bottles
    ##       <dbl> <chr> <chr> <chr>       <dbl>              <dbl>           <dbl>
    ##  1        1 May   2014  16           4.31                 18            1450
    ##  2        2 May   2014  16           2.74                 13            1120
    ##  3        3 May   2014  16           3.45                 15            2450
    ##  4        4 May   2014  17           3.1                  15            2380
    ##  5        5 May   2014  17           4.06                 18             980
    ##  6        6 May   2014  20           2.71                 13            1430
    ##  7        7 May   2014  21           1.91                  8             910
    ##  8        8 May   2014  28           3.7                  16            3580
    ##  9        9 June  2014  05           2.52                 14            2400
    ## 10       10 June  2014  11           3.76                 18            1340
    ## # ℹ 537 more rows
    ## # ℹ 8 more variables: polystyrene <dbl>, cigarette_butts <dbl>,
    ## #   glass_bottles <dbl>, grocery_bags <dbl>, chip_bags <dbl>,
    ## #   sports_balls <dbl>, homes_powered <dbl>, name <chr>
…
professor_trash_wheel_df = 
  readxl::read_excel("HW2_P2_DATA/202207 Trash Wheel Collection Data.xlsx", sheet = "Professor Trash Wheel", range = "A2:M96")|>
  janitor::clean_names()|>
  mutate(
    date = substr(date, nchar(date) - 1, nchar(date))
  )|>
  mutate(
    homes_powered = (weight_tons*500/30), 
    year = as.character(year)
  )|>
  mutate(name = "Professor_trash_wheel")
professor_trash_wheel_df
```

    ## # A tibble: 94 × 14
    ##    dumpster month    year  date  weight_tons volume_cubic_yards plastic_bottles
    ##       <dbl> <chr>    <chr> <chr>       <dbl>              <dbl>           <dbl>
    ##  1        1 January  2017  02           1.79                 15            1950
    ##  2        2 January  2017  30           1.58                 15            9540
    ##  3        3 February 2017  26           2.32                 18            8350
    ##  4        4 February 2017  26           3.72                 15            8590
    ##  5        5 February 2017  28           1.45                 15            7830
    ##  6        6 March    2017  30           1.71                 15            8210
    ##  7        7 April    2017  01           1.82                 15            9830
    ##  8        8 April    2017  20           2.37                 15            9240
    ##  9        9 May      2017  10           2.64                 15            9540
    ## 10       10 May      2017  26           2.78                 15            8230
    ## # ℹ 84 more rows
    ## # ℹ 7 more variables: polystyrene <dbl>, cigarette_butts <dbl>,
    ## #   glass_bottles <dbl>, grocery_bags <dbl>, chip_bags <dbl>,
    ## #   homes_powered <dbl>, name <chr>
…
total_weight_professor = sum(pull(professor_trash_wheel_df, weight_tons))

total_cigarette_butts_gwynnda_july_2021 = subset(
  gwynnda_trash_wheel_df, 
  month == "July" & year == "2021"
  )|>
  pull(
    cigarette_butts
    )|>
  sum()
gwynnda_trash_wheel_df
```

    ## # A tibble: 106 × 12
    ##    dumpster month  year  date  weight_tons volume_cubic_yards plastic_bottles
    ##       <dbl> <chr>  <chr> <chr>       <dbl>              <dbl>           <dbl>
    ##  1        1 July   2021  03           0.93                 15            1200
    ##  2        2 July   2021  07           2.26                 15            2000
    ##  3        3 July   2021  07           1.62                 15            1800
    ##  4        4 July   2021  16           1.76                 15            1000
    ##  5        5 July   2021  30           1.53                 15            2100
    ##  6        6 August 2021  11           2.06                 15            2400
    ##  7        7 August 2021  14           1.9                  15            2700
    ##  8        8 August 2021  16           2.16                 15            3000
    ##  9        9 August 2021  16           2.6                  15             980
    ## 10       10 August 2021  17           3.21                 15             240
    ## # ℹ 96 more rows
    ## # ℹ 5 more variables: polystyrene <dbl>, cigarette_butts <dbl>,
    ## #   plastic_bags <dbl>, homes_powered <dbl>, name <chr>
…
